{
  "version": "1.5.0",
  "apps": [
    {
      "name": "Settings",
      "version": "1.0.0",
      "hash": "335d3df52df4852c962277ca563e4a7cb67f450a31f9b3fe80543f262bf3f71c",
      "pubKey": "927c8f340255d5a2d7b839ce4859f7dc33c64e5967fe40dde023c0751a53dff3925eec1eaaeb60f83c203c85e9c5b223",
      "sign": "a72c0b66b936b36525fdc1f07c94266a8280abd6acb04d1d87477d8ea790c98593084649f5be7fb7653c8ffcc34dd3e5067b2ffac7feaa85e5e574c972b7363dc0ac7df937c82cdce2ccae7cf6c2df265a3e8c9188cda23d872da08a0e2fa5a4",
      "logo": "https://gitlab.com/QuangFiIt/upload_app/-/raw/main/top-web-usa-logo/iconSetting.jpg",
      "id": "setting",
      "urlWeb": "http://61.28.238.209:9095/",
      "type": 1,
      "page": 0,
      "position": {
        "x": 1,
        "y": 0,
        "width": 1,
        "height": 1
      }
    },
    {
      "name": "Web3 Space",
      "version": "0.0.11",
      "hash": "335d3df52df4852c962277ca563e4a7cb67f450a31f9b3fe80543f262bf3f71c",
      "pubKey": "927c8f340255d5a2d7b839ce4859f7dc33c64e5967fe40dde023c0751a53dff3925eec1eaaeb60f83c203c85e9c5b223",
      "sign": "a72c0b66b936b36525fdc1f07c94266a8280abd6acb04d1d87477d8ea790c98593084649f5be7fb7653c8ffcc34dd3e5067b2ffac7feaa85e5e574c972b7363dc0ac7df937c82cdce2ccae7cf6c2df265a3e8c9188cda23d872da08a0e2fa5a4",
      "logo": "https://metanode.co/images/browser.png",
      "urlLauchScreen": "",
      "urlLoadingScreen": "",
      "urlZip": "https://gitlab.com/QuangFiIt/upload_app/-/raw/main/meta_browser/browser_1.0.1.zip?inline=false",
      "id": "com.web3space.metaword",
      "orientation": "portrait",
      "author": "n/a",
      "full_screen": true,
      "status_bar": "hide",
      "type": 4,
      "page": 0,
      "position": {
        "x": 2,
        "y": 0,
        "width": 1,
        "height": 1
      }
    },
    {
      "name": "Wallet",
      "version": "1.0.1",
      "hash": "335d3df52df4852c962277ca563e4a7cb67f450a31f9b3fe80543f262bf3f71c",
      "pubKey": "927c8f340255d5a2d7b839ce4859f7dc33c64e5967fe40dde023c0751a53dff3925eec1eaaeb60f83c203c85e9c5b223",
      "sign": "a72c0b66b936b36525fdc1f07c94266a8280abd6acb04d1d87477d8ea790c98593084649f5be7fb7653c8ffcc34dd3e5067b2ffac7feaa85e5e574c972b7363dc0ac7df937c82cdce2ccae7cf6c2df265a3e8c9188cda23d872da08a0e2fa5a4",
      "logo": "https://gitlab.com/QuangFiIt/upload_app/-/raw/main/top-web-usa-logo/wallet.png",
      "id": "meta.wallet",
      "urlZip": "https://gitlab.com/QuangFiIt/upload_app/-/raw/main/meta_wallet/meta_wallet_20230206_1833.zip?inline=false",
      "orientation": "portrait",
      "author": "n/a",
      "full_screen": true,
      "status_bar": "hide",
      "type": 1,
      "page": 0,
      "position": {
        "x": 3,
        "y": 0,
        "width": 1,
        "height": 1
      },
      "urlWeb": "http://61.28.238.209:9090"
    },
    {
      "name": "Wallet [DEV]",
      "version": "1.0.1",
      "hash": "335d3df52df4852c962277ca563e4a7cb67f450a31f9b3fe80543f262bf3f71c",
      "pubKey": "927c8f340255d5a2d7b839ce4859f7dc33c64e5967fe40dde023c0751a53dff3925eec1eaaeb60f83c203c85e9c5b223",
      "sign": "a72c0b66b936b36525fdc1f07c94266a8280abd6acb04d1d87477d8ea790c98593084649f5be7fb7653c8ffcc34dd3e5067b2ffac7feaa85e5e574c972b7363dc0ac7df937c82cdce2ccae7cf6c2df265a3e8c9188cda23d872da08a0e2fa5a4",
      "logo": "https://gitlab.com/QuangFiIt/upload_app/-/raw/main/top-web-usa-logo/wallet.png",
      "id": "meta.dev.wallet",
      "urlZip": "https://gitlab.com/QuangFiIt/upload_app/-/raw/main/meta_wallet/meta_wallet_20230206_1833.zip?inline=false",
      "orientation": "portrait",
      "author": "n/a",
      "full_screen": true,
      "status_bar": "hide",
      "type": 1,
      "page": 22,
      "position": {
        "x": 3,
        "y": 0,
        "width": 1,
        "height": 1
      },
      "urlWeb": "http://10.0.0.48:8080/"
    },
    {
      "name": "Swap Token",
      "version": "1.0.0",
      "hash": "335d3df52df4852c962277ca563e4a7cb67f450a31f9b3fe80543f262bf3f71c",
      "pubKey": "927c8f340255d5a2d7b839ce4859f7dc33c64e5967fe40dde023c0751a53dff3925eec1eaaeb60f83c203c85e9c5b223",
      "sign": "a72c0b66b936b36525fdc1f07c94266a8280abd6acb04d1d87477d8ea790c98593084649f5be7fb7653c8ffcc34dd3e5067b2ffac7feaa85e5e574c972b7363dc0ac7df937c82cdce2ccae7cf6c2df265a3e8c9188cda23d872da08a0e2fa5a4",
      "logo": "https://gitlab.com/QuangFiIt/upload_app/-/raw/main/top-web-usa-logo/swap.jpg",
      "id": "meta.prod.swaptoken",
      "orientation": "portrait",
      "author": "n/a",
      "full_screen": true,
      "status_bar": "hide",
      "type": 1,
      "page": 0,
      "position": {
        "x": 1,
        "y": 1,
        "width": 1,
        "height": 1
      },
      "urlWeb": "http://61.28.238.209:9096/swap_token/"
    },
    {
      "name": "Meta Betting",
      "version": "1.0.0",
      "hash": "335d3df52df4852c962277ca563e4a7cb67f450a31f9b3fe80543f262bf3f71c",
      "pubKey": "927c8f340255d5a2d7b839ce4859f7dc33c64e5967fe40dde023c0751a53dff3925eec1eaaeb60f83c203c85e9c5b223",
      "sign": "a72c0b66b936b36525fdc1f07c94266a8280abd6acb04d1d87477d8ea790c98593084649f5be7fb7653c8ffcc34dd3e5067b2ffac7feaa85e5e574c972b7363dc0ac7df937c82cdce2ccae7cf6c2df265a3e8c9188cda23d872da08a0e2fa5a4",
      "logo": "https://gitlab.com/QuangFiIt/upload_app/-/raw/main/top-web-usa-logo/betting.jpg",
      "id": "meta.dev.betting_ios",
      "orientation": "portrait",
      "author": "n/a",
      "full_screen": true,
      "status_bar": "hide",
      "type": 1,
      "page": 0,
      "position": {
        "x": 2,
        "y": 1,
        "width": 1,
        "height": 1
      },
      "urlWeb": "http://61.28.238.209:9096/betting/index.html"
    },

    {
      "name": "Music",
      "version": "0.0.1",
      "logo": "https://gitlab.com/tranhuy.beearning/upload-d-apps/-/raw/main/metanode_d_apps/public/music-min.jpg",
      "hash": "335d3df52df4852c962277ca563e4a7cb67f450a31f9b3fe80543f262bf3f71c",
      "pubKey": "927c8f340255d5a2d7b839ce4859f7dc33c64e5967fe40dde023c0751a53dff3925eec1eaaeb60f83c203c85e9c5b223",
      "sign": "a72c0b66b936b36525fdc1f07c94266a8280abd6acb04d1d87477d8ea790c98593084649f5be7fb7653c8ffcc34dd3e5067b2ffac7feaa85e5e574c972b7363dc0ac7df937c82cdce2ccae7cf6c2df265a3e8c9188cda23d872da08a0e2fa5a4",
      "id": "music.app",
      "orientation": "portrait",
      "author": "n/a",
      "isLocal": false,
      "full_screen": true,
      "status_bar": "hide",
      "type": 4,
      "urlWeb": "https://music.metanode.co/",
      "page": 0,
      "position": {
        "x": 3,
        "y": 1,
        "width": 1,
        "height": 1
      }
    },
    {
      "name": "Mining",
      "version": "1.0.1",
      "hash": "335d3df52df4852c962277ca563e4a7cb67f450a31f9b3fe80543f262bf3f71c",
      "pubKey": "927c8f340255d5a2d7b839ce4859f7dc33c64e5967fe40dde023c0751a53dff3925eec1eaaeb60f83c203c85e9c5b223",
      "sign": "a72c0b66b936b36525fdc1f07c94266a8280abd6acb04d1d87477d8ea790c98593084649f5be7fb7653c8ffcc34dd3e5067b2ffac7feaa85e5e574c972b7363dc0ac7df937c82cdce2ccae7cf6c2df265a3e8c9188cda23d872da08a0e2fa5a4",
      "logo": "https://gitlab.com/QuangFiIt/upload_app/-/raw/main/top-web-usa-logo/mining.jpg",
      "id": "meta.mining",
      "orientation": "portrait",
      "author": "n/a",
      "full_screen": true,
      "status_bar": "hide",
      "type": 1,
      "page": 0,
      "position": {
        "x": 0,
        "y": 1,
        "width": 1,
        "height": 1
      },
      "urlWeb": "http://61.28.238.209:8085"
    },
    {
      "name": "Dragon Battle",
      "version": "1.0.0",
      "hash": "335d3df52df4852c962277ca563e4a7cb67f450a31f9b3fe80543f262bf3f71c",
      "pubKey": "927c8f340255d5a2d7b839ce4859f7dc33c64e5967fe40dde023c0751a53dff3925eec1eaaeb60f83c203c85e9c5b223",
      "sign": "a72c0b66b936b36525fdc1f07c94266a8280abd6acb04d1d87477d8ea790c98593084649f5be7fb7653c8ffcc34dd3e5067b2ffac7feaa85e5e574c972b7363dc0ac7df937c82cdce2ccae7cf6c2df265a3e8c9188cda23d872da08a0e2fa5a4",
      "logo": "https://gitlab.com/QuangFiIt/upload_app/-/raw/main/top-web-usa-logo/dragon_battle.png",
      "id": "meta.prod.dragonbattle",
      "orientation": "landscape",
      "author": "n/a",
      "full_screen": true,
      "status_bar": "hide",
      "type": 1,
      "page": 0,
      "position": {
        "x": 0,
        "y": 2,
        "width": 1,
        "height": 1
      },
      "urlWeb": "http://61.28.238.209:8080"
    },
    {
      "name": "App Store",
      "version": "1.0.0",
      "hash": "335d3df52df4852c962277ca563e4a7cb67f450a31f9b3fe80543f262bf3f71c",
      "pubKey": "927c8f340255d5a2d7b839ce4859f7dc33c64e5967fe40dde023c0751a53dff3925eec1eaaeb60f83c203c85e9c5b223",
      "sign": "a72c0b66b936b36525fdc1f07c94266a8280abd6acb04d1d87477d8ea790c98593084649f5be7fb7653c8ffcc34dd3e5067b2ffac7feaa85e5e574c972b7363dc0ac7df937c82cdce2ccae7cf6c2df265a3e8c9188cda23d872da08a0e2fa5a4",
      "logo": "https://gitlab.com/QuangFiIt/upload_app/-/raw/main/top-web-usa-logo/dapp_store.png",
      "id": "meta.appstore",
      "orientation": "portrait",
      "author": "n/a",
      "full_screen": true,
      "status_bar": "hide",
      "type": 1,
      "page": 0,
      "position": {
        "x": 1,
        "y": 2,
        "width": 1,
        "height": 1
      },
      "urlWeb": "http://61.28.238.209:9092"
    },
    {
      "name": "Google",
      "version": "0.0.1",
      "urlWeb": "https://www.google.com",
      "logo": "https://gitlab.com/QuangFiIt/upload_app/-/raw/main/top-web-usa-logo/google.png",
      "id": "google.web",
      "orientation": "portrait",
      "author": "n/a",
      "isLocal": false,
      "full_screen": true,
      "status_bar": "hide",
      "type": 4,
      "page": 1,
      "position": {
        "x": 0,
        "y": 0,
        "width": 1,
        "height": 1
      }
    },
    {
      "name": "Youtube",
      "version": "0.0.2",
      "urlWeb": "https://www.youtube.com",
      "logo": "https://gitlab.com/QuangFiIt/upload_app/-/raw/main/top-web-usa-logo/youtube.jpg",
      "id": "youtube.app",
      "orientation": "portrait",
      "author": "n/a",
      "isLocal": false,
      "full_screen": true,
      "status_bar": "hide",
      "type": 1,
      "urlScript": "https://gitlab.com/QuangFiIt/upload_app/-/raw/main/script/main_v2.js",
      "page": 0,
      "position": {
        "x": 0,
        "y": 0,
        "width": 1,
        "height": 1
      }
    },
    {
      "name": "Instagram",
      "version": "0.0.1",
      "urlWeb": "https://www.instagram.com",
      "logo": "https://gitlab.com/QuangFiIt/upload_app/-/raw/main/top-web-usa-logo/instagram.jpg",
      "id": "instagram.web",
      "orientation": "portrait",
      "author": "n/a",
      "isLocal": false,
      "full_screen": true,
      "status_bar": "hide",
      "type": 4,
      "page": 1,
      "position": {
        "x": 2,
        "y": 1,
        "width": 1,
        "height": 1
      }
    },
    {
      "name": "Facebook",
      "version": "0.0.1",
      "urlWeb": "https://www.facebook.com",
      "logo": "https://gitlab.com/QuangFiIt/upload_app/-/raw/main/top-web-usa-logo/facebook.jpg",
      "id": "facebook.web",
      "orientation": "portrait",
      "author": "n/a",
      "isLocal": false,
      "full_screen": true,
      "status_bar": "hide",
      "type": 4,
      "page": 2,
      "position": {
        "x": 1,
        "y": 1,
        "width": 1,
        "height": 1
      }
    },
    {
      "name": "Wikipedia",
      "version": "0.0.1",
      "urlWeb": "https://www.wikipedia.org",
      "logo": "https://gitlab.com/QuangFiIt/upload_app/-/raw/main/top-web-usa-logo/wikipedia.jpg",
      "id": "com.wikipedia.org.name",
      "orientation": "portrait",
      "author": "n/a",
      "isLocal": false,
      "full_screen": true,
      "status_bar": "hide",
      "type": 4,
      "page": 2,
      "position": {
        "x": 3,
        "y": 1,
        "width": 1,
        "height": 1
      }
    },
    {
      "name": "Yandex",
      "version": "0.0.1",
      "urlWeb": "https://www.yandex.ru",
      "logo": "https://gitlab.com/QuangFiIt/upload_app/-/raw/main/top-web-usa-logo/yandex.png",
      "id": "com.yandex.ru.name",
      "orientation": "portrait",
      "author": "n/a",
      "isLocal": false,
      "full_screen": true,
      "status_bar": "hide",
      "type": 4,
      "page": 3,
      "position": {
        "x": 1,
        "y": 3,
        "width": 1,
        "height": 1
      }
    },
    {
      "name": "Yahoo",
      "version": "0.0.1",
      "urlWeb": "https://www.yahoo.com",
      "logo": "https://gitlab.com/QuangFiIt/upload_app/-/raw/main/top-web-usa-logo/yahoo.png",
      "id": "yahoo.web",
      "orientation": "portrait",
      "author": "n/a",
      "isLocal": false,
      "full_screen": true,
      "status_bar": "hide",
      "type": 4,
      "page": 3,
      "position": {
        "x": 1,
        "y": 2,
        "width": 1,
        "height": 1
      }
    },
    {
      "name": "Whatsapp",
      "version": "0.0.1",
      "urlWeb": "https://www.whatsapp.com",
      "logo": "https://gitlab.com/QuangFiIt/upload_app/-/raw/main/top-web-usa-logo/whatsapp.png",
      "id": "whatsapp.web",
      "orientation": "portrait",
      "author": "n/a",
      "isLocal": false,
      "full_screen": true,
      "status_bar": "hide",
      "type": 4,
      "page": 4,
      "position": {
        "x": 0,
        "y": 3,
        "width": 1,
        "height": 1
      }
    },
    {
      "name": "Amazon",
      "version": "0.0.1",
      "urlWeb": "https://www.amazon.com",
      "logo": "https://gitlab.com/QuangFiIt/upload_app/-/raw/main/top-web-usa-logo/amazon.jpg",
      "id": "amazon.web",
      "orientation": "portrait",
      "author": "n/a",
      "isLocal": false,
      "full_screen": true,
      "status_bar": "hide",
      "type": 4,
      "page": 4,
      "position": {
        "x": 1,
        "y": 3,
        "width": 1,
        "height": 1
      }
    },
    {
      "name": "Frame-Test-1",
      "version": "0.0.1",
      "type": 3,
      "urlWeb": "https://www.youtube.com/embed/wpPRWCKba64",
      "position": {
        "x": 0,
        "y": 0,
        "width": 3,
        "height": 3
      },
      "page": 4,
      "id": "frame.youtube.default"
    },
    {
      "name": "News",
      "version": "0.0.1",
      "logo": "https://gitlab.com/tranhuy.beearning/upload-d-apps/-/raw/main/metanode_d_apps/public/News.jpg",
      "hash": "335d3df52df4852c962277ca563e4a7cb67f450a31f9b3fe80543f262bf3f71c",
      "pubKey": "927c8f340255d5a2d7b839ce4859f7dc33c64e5967fe40dde023c0751a53dff3925eec1eaaeb60f83c203c85e9c5b223",
      "sign": "a72c0b66b936b36525fdc1f07c94266a8280abd6acb04d1d87477d8ea790c98593084649f5be7fb7653c8ffcc34dd3e5067b2ffac7feaa85e5e574c972b7363dc0ac7df937c82cdce2ccae7cf6c2df265a3e8c9188cda23d872da08a0e2fa5a4",
      "id": "news.app",
      "orientation": "portrait",
      "author": "n/a",
      "isLocal": false,
      "full_screen": true,
      "status_bar": "hide",
      "type": 3,
      "urlWeb": "https://www.msn.com/vi-vn",
      "urlScript": "https://gitlab.com/tranhuy.beearning/upload-d-apps/-/raw/main/metanode_d_apps/scripts/msn/index.js",
      "page": 18,
      "position": {
        "x": 0,
        "y": 0,
        "width": 4,
        "height": 4
      }
    },
    {
      "name": "Pets",
      "version": "0.0.1",
      "logo": "https://gitlab.com/tranhuy.beearning/upload-d-apps/-/raw/main/metanode_d_apps/public/Pets.jpg",
      "hash": "335d3df52df4852c962277ca563e4a7cb67f450a31f9b3fe80543f262bf3f71c",
      "pubKey": "927c8f340255d5a2d7b839ce4859f7dc33c64e5967fe40dde023c0751a53dff3925eec1eaaeb60f83c203c85e9c5b223",
      "sign": "a72c0b66b936b36525fdc1f07c94266a8280abd6acb04d1d87477d8ea790c98593084649f5be7fb7653c8ffcc34dd3e5067b2ffac7feaa85e5e574c972b7363dc0ac7df937c82cdce2ccae7cf6c2df265a3e8c9188cda23d872da08a0e2fa5a4",
      "id": "pet.app",
      "orientation": "portrait",
      "author": "n/a",
      "isLocal": false,
      "full_screen": true,
      "status_bar": "hide",
      "type": 3,
      "urlWeb": "http://61.28.238.209:9096/pets/",
      "page": 0,
      "position": {
        "x": 0,
        "y": 4,
        "width": 2,
        "height": 2
      }
    },
    {
      "name": "Clock",
      "version": "0.0.1",
      "logo": "https://gitlab.com/tranhuy.beearning/upload-d-apps/-/raw/main/metanode_d_apps/public/Clock.jpg",
      "hash": "335d3df52df4852c962277ca563e4a7cb67f450a31f9b3fe80543f262bf3f71c",
      "pubKey": "927c8f340255d5a2d7b839ce4859f7dc33c64e5967fe40dde023c0751a53dff3925eec1eaaeb60f83c203c85e9c5b223",
      "sign": "a72c0b66b936b36525fdc1f07c94266a8280abd6acb04d1d87477d8ea790c98593084649f5be7fb7653c8ffcc34dd3e5067b2ffac7feaa85e5e574c972b7363dc0ac7df937c82cdce2ccae7cf6c2df265a3e8c9188cda23d872da08a0e2fa5a4",
      "id": "clock.app",
      "orientation": "portrait",
      "author": "n/a",
      "isLocal": false,
      "full_screen": true,
      "status_bar": "hide",
      "type": 3,
      "urlWeb": "http://61.28.238.209:9096/clock/",
      "page": 0,
      "position": {
        "x": 2,
        "y": 4,
        "width": 2,
        "height": 2
      }
    },
    {
      "name": "Task",
      "version": "0.0.1",
      "logo": "https://gitlab.com/tranhuy.beearning/upload-d-apps/-/raw/main/metanode_d_apps/public/Task.jpg",
      "hash": "335d3df52df4852c962277ca563e4a7cb67f450a31f9b3fe80543f262bf3f71c",
      "pubKey": "927c8f340255d5a2d7b839ce4859f7dc33c64e5967fe40dde023c0751a53dff3925eec1eaaeb60f83c203c85e9c5b223",
      "sign": "a72c0b66b936b36525fdc1f07c94266a8280abd6acb04d1d87477d8ea790c98593084649f5be7fb7653c8ffcc34dd3e5067b2ffac7feaa85e5e574c972b7363dc0ac7df937c82cdce2ccae7cf6c2df265a3e8c9188cda23d872da08a0e2fa5a4",
      "id": "task.app",
      "orientation": "portrait",
      "author": "n/a",
      "isLocal": false,
      "full_screen": true,
      "status_bar": "hide",
      "type": 3,
      "urlWeb": "http://61.28.238.209:9096/task/",
      "page": 21,
      "position": {
        "x": 0,
        "y": 0,
        "width": 4,
        "height": 4
      }
    },
    {
      "name": "Rubik Cube",
      "version": "0.0.1",
      "logo": "https://gitlab.com/tranhuy.beearning/upload-d-apps/-/raw/main/metanode_d_apps/public/rubik-cube.png",
      "hash": "335d3df52df4852c962277ca563e4a7cb67f450a31f9b3fe80543f262bf3f71c",
      "pubKey": "927c8f340255d5a2d7b839ce4859f7dc33c64e5967fe40dde023c0751a53dff3925eec1eaaeb60f83c203c85e9c5b223",
      "sign": "a72c0b66b936b36525fdc1f07c94266a8280abd6acb04d1d87477d8ea790c98593084649f5be7fb7653c8ffcc34dd3e5067b2ffac7feaa85e5e574c972b7363dc0ac7df937c82cdce2ccae7cf6c2df265a3e8c9188cda23d872da08a0e2fa5a4",
      "id": "rubik.app",
      "orientation": "portrait",
      "author": "n/a",
      "isLocal": false,
      "full_screen": true,
      "status_bar": "hide",
      "type": 3,
      "urlWeb": "http://61.28.238.209:9096/rubik_cube/",
      "page": 5,
      "position": {
        "x": 0,
        "y": 0,
        "width": 4,
        "height": 4
      }
    },
    {
      "name": "Tictactoe",
      "version": "0.0.1",
      "logo": "https://gitlab.com/tranhuy.beearning/upload-d-apps/-/raw/main/metanode_d_apps/public/tictactoe.png",
      "hash": "335d3df52df4852c962277ca563e4a7cb67f450a31f9b3fe80543f262bf3f71c",
      "pubKey": "927c8f340255d5a2d7b839ce4859f7dc33c64e5967fe40dde023c0751a53dff3925eec1eaaeb60f83c203c85e9c5b223",
      "sign": "a72c0b66b936b36525fdc1f07c94266a8280abd6acb04d1d87477d8ea790c98593084649f5be7fb7653c8ffcc34dd3e5067b2ffac7feaa85e5e574c972b7363dc0ac7df937c82cdce2ccae7cf6c2df265a3e8c9188cda23d872da08a0e2fa5a4",
      "id": "tictactoe.app",
      "orientation": "portrait",
      "author": "n/a",
      "isLocal": false,
      "full_screen": true,
      "status_bar": "hide",
      "type": 3,
      "urlWeb": "http://61.28.238.209:9096/tictactoe/",
      "page": 6,
      "position": {
        "x": 0,
        "y": 0,
        "width": 4,
        "height": 4
      }
    },
    {
      "name": "Train Puzzle",
      "version": "0.0.1",
      "logo": "https://gitlab.com/tranhuy.beearning/upload-d-apps/-/raw/main/metanode_d_apps/public/train_puzzle.png",
      "hash": "335d3df52df4852c962277ca563e4a7cb67f450a31f9b3fe80543f262bf3f71c",
      "pubKey": "927c8f340255d5a2d7b839ce4859f7dc33c64e5967fe40dde023c0751a53dff3925eec1eaaeb60f83c203c85e9c5b223",
      "sign": "a72c0b66b936b36525fdc1f07c94266a8280abd6acb04d1d87477d8ea790c98593084649f5be7fb7653c8ffcc34dd3e5067b2ffac7feaa85e5e574c972b7363dc0ac7df937c82cdce2ccae7cf6c2df265a3e8c9188cda23d872da08a0e2fa5a4",
      "id": "train.app",
      "orientation": "portrait",
      "author": "n/a",
      "isLocal": false,
      "full_screen": true,
      "status_bar": "hide",
      "type": 3,
      "urlWeb": "http://61.28.238.209:9096/train_puzzle/",
      "page": 7,
      "position": {
        "x": 0,
        "y": 0,
        "width": 4,
        "height": 4
      }
    },
    {
      "name": "Photo Edit",
      "version": "0.0.1",
      "urlWeb": "https://edit.photo",
      "logo": "https://gitlab.com/tranhuy.beearning/upload-d-apps/-/raw/main/metanode_d_apps/public/photo-edit.jpg",
      "hash": "335d3df52df4852c962277ca563e4a7cb67f450a31f9b3fe80543f262bf3f71c",
      "pubKey": "927c8f340255d5a2d7b839ce4859f7dc33c64e5967fe40dde023c0751a53dff3925eec1eaaeb60f83c203c85e9c5b223",
      "sign": "a72c0b66b936b36525fdc1f07c94266a8280abd6acb04d1d87477d8ea790c98593084649f5be7fb7653c8ffcc34dd3e5067b2ffac7feaa85e5e574c972b7363dc0ac7df937c82cdce2ccae7cf6c2df265a3e8c9188cda23d872da08a0e2fa5a4",
      "id": "photo.app",
      "orientation": "portrait",
      "author": "n/a",
      "isLocal": false,
      "full_screen": true,
      "status_bar": "hide",
      "type": 3,
      "urlScript": "https://gitlab.com/tranhuy.beearning/upload-d-apps/-/raw/main/metanode_d_apps/scripts/edit.photo/script.js",
      "page": 8,
      "position": {
        "x": 0,
        "y": 0,
        "width": 4,
        "height": 4
      }
    },
    {
      "name": "Video Edit",
      "version": "0.0.1",
      "urlWeb": "https://edit.video",
      "logo": "https://gitlab.com/tranhuy.beearning/upload-d-apps/-/raw/main/metanode_d_apps/public/video-edit.jpg",
      "hash": "335d3df52df4852c962277ca563e4a7cb67f450a31f9b3fe80543f262bf3f71c",
      "pubKey": "927c8f340255d5a2d7b839ce4859f7dc33c64e5967fe40dde023c0751a53dff3925eec1eaaeb60f83c203c85e9c5b223",
      "sign": "a72c0b66b936b36525fdc1f07c94266a8280abd6acb04d1d87477d8ea790c98593084649f5be7fb7653c8ffcc34dd3e5067b2ffac7feaa85e5e574c972b7363dc0ac7df937c82cdce2ccae7cf6c2df265a3e8c9188cda23d872da08a0e2fa5a4",
      "id": "video.app",
      "orientation": "portrait",
      "author": "n/a",
      "isLocal": false,
      "full_screen": true,
      "status_bar": "hide",
      "type": 3,
      "urlScript": "https://gitlab.com/tranhuy.beearning/upload-d-apps/-/raw/main/metanode_d_apps/scripts/edit.video/script.js",
      "page": 9,
      "position": {
        "x": 0,
        "y": 0,
        "width": 4,
        "height": 4
      }
    },
    {
      "name": "Avatar",
      "version": "0.0.1",
      "urlWeb": "https://metanode.readyplayer.me",
      "logo": "https://gitlab.com/tranhuy.beearning/upload-d-apps/-/raw/main/metanode_d_apps/public/avatar.jpg",
      "hash": "335d3df52df4852c962277ca563e4a7cb67f450a31f9b3fe80543f262bf3f71c",
      "pubKey": "927c8f340255d5a2d7b839ce4859f7dc33c64e5967fe40dde023c0751a53dff3925eec1eaaeb60f83c203c85e9c5b223",
      "sign": "a72c0b66b936b36525fdc1f07c94266a8280abd6acb04d1d87477d8ea790c98593084649f5be7fb7653c8ffcc34dd3e5067b2ffac7feaa85e5e574c972b7363dc0ac7df937c82cdce2ccae7cf6c2df265a3e8c9188cda23d872da08a0e2fa5a4",
      "id": "avatar.app",
      "orientation": "portrait",
      "author": "n/a",
      "isLocal": false,
      "full_screen": true,
      "status_bar": "hide",
      "type": 3,
      "urlScript": "https://gitlab.com/tranhuy.beearning/upload-d-apps/-/raw/main/metanode_d_apps/scripts/metanode-avatar/script.js",
      "page": 10,
      "position": {
        "x": 0,
        "y": 0,
        "width": 4,
        "height": 4
      }
    },
    {
      "name": "Calculator",
      "version": "0.0.1",
      "logo": "https://gitlab.com/tranhuy.beearning/upload-d-apps/-/raw/main/metanode_d_apps/public/Calculator.jpg",
      "hash": "335d3df52df4852c962277ca563e4a7cb67f450a31f9b3fe80543f262bf3f71c",
      "pubKey": "927c8f340255d5a2d7b839ce4859f7dc33c64e5967fe40dde023c0751a53dff3925eec1eaaeb60f83c203c85e9c5b223",
      "sign": "a72c0b66b936b36525fdc1f07c94266a8280abd6acb04d1d87477d8ea790c98593084649f5be7fb7653c8ffcc34dd3e5067b2ffac7feaa85e5e574c972b7363dc0ac7df937c82cdce2ccae7cf6c2df265a3e8c9188cda23d872da08a0e2fa5a4",
      "id": "calculator.app",
      "orientation": "portrait",
      "author": "n/a",
      "isLocal": false,
      "full_screen": true,
      "status_bar": "hide",
      "type": 3,
      "urlWeb": "http://61.28.238.209:9096/calculator/",
      "page": 11,
      "position": {
        "x": 0,
        "y": 0,
        "width": 4,
        "height": 4
      }
    },
    {
      "name": "Tiktok",
      "hash": "335d3df52df4852c962277ca563e4a7cb67f450a31f9b3fe80543f262bf3f71c",
      "pubKey": "927c8f340255d5a2d7b839ce4859f7dc33c64e5967fe40dde023c0751a53dff3925eec1eaaeb60f83c203c85e9c5b223",
      "sign": "a72c0b66b936b36525fdc1f07c94266a8280abd6acb04d1d87477d8ea790c98593084649f5be7fb7653c8ffcc34dd3e5067b2ffac7feaa85e5e574c972b7363dc0ac7df937c82cdce2ccae7cf6c2df265a3e8c9188cda23d872da08a0e2fa5a4",
      "version": "0.0.1",
      "logo": "https://gitlab.com/QuangFiIt/upload_app/-/raw/main/top-web-usa-logo/tiktok.jpg",
      "id": "tiktok.app",
      "orientation": "portrait",
      "author": "n/a",
      "isLocal": false,
      "full_screen": true,
      "status_bar": "hide",
      "type": 3,
      "urlScript": "https://gitlab.com/tranhuy.beearning/upload-d-apps/-/raw/main/metanode_d_apps/scripts/tiktok/script.js",
      "page": 12,
      "urlWeb": "https://www.tiktok.com",
      "position": {
        "x": 0,
        "y": 0,
        "width": 4,
        "height": 4
      }
    },
    {
      "name": "Note",
      "version": "0.0.1",
      "logo": "https://gitlab.com/tranhuy.beearning/upload-d-apps/-/raw/main/metanode_d_apps/public/Notes.jpg",
      "hash": "335d3df52df4852c962277ca563e4a7cb67f450a31f9b3fe80543f262bf3f71c",
      "pubKey": "927c8f340255d5a2d7b839ce4859f7dc33c64e5967fe40dde023c0751a53dff3925eec1eaaeb60f83c203c85e9c5b223",
      "sign": "a72c0b66b936b36525fdc1f07c94266a8280abd6acb04d1d87477d8ea790c98593084649f5be7fb7653c8ffcc34dd3e5067b2ffac7feaa85e5e574c972b7363dc0ac7df937c82cdce2ccae7cf6c2df265a3e8c9188cda23d872da08a0e2fa5a4",
      "id": "note.app",
      "orientation": "portrait",
      "author": "n/a",
      "isLocal": false,
      "full_screen": true,
      "status_bar": "hide",
      "type": 3,
      "urlWeb": "http://61.28.238.209:9096/note/",
      "page": 13,
      "position": {
        "x": 0,
        "y": 0,
        "width": 4,
        "height": 4
      }
    },
    {
      "name": "Weather",
      "version": "0.0.1",
      "logo": "https://gitlab.com/tranhuy.beearning/upload-d-apps/-/raw/main/metanode_d_apps/public/weather.jpg",
      "hash": "335d3df52df4852c962277ca563e4a7cb67f450a31f9b3fe80543f262bf3f71c",
      "pubKey": "927c8f340255d5a2d7b839ce4859f7dc33c64e5967fe40dde023c0751a53dff3925eec1eaaeb60f83c203c85e9c5b223",
      "sign": "a72c0b66b936b36525fdc1f07c94266a8280abd6acb04d1d87477d8ea790c98593084649f5be7fb7653c8ffcc34dd3e5067b2ffac7feaa85e5e574c972b7363dc0ac7df937c82cdce2ccae7cf6c2df265a3e8c9188cda23d872da08a0e2fa5a4",
      "id": "news.app",
      "orientation": "portrait",
      "author": "n/a",
      "isLocal": false,
      "full_screen": true,
      "status_bar": "hide",
      "type": 3,
      "urlWeb": "https://www.msn.com/vi-vn",
      "urlScript": "https://gitlab.com/tranhuy.beearning/upload-d-apps/-/raw/main/metanode_d_apps/scripts/weather/script.js",
      "page": 14,
      "position": {
        "x": 0,
        "y": 0,
        "width": 4,
        "height": 4
      }
    },
    {
      "name": "Telegram",
      "version": "0.0.1",
      "logo": "https://gitlab.com/tranhuy.beearning/upload-d-apps/-/raw/main/metanode_d_apps/public/telegram.png",
      "hash": "335d3df52df4852c962277ca563e4a7cb67f450a31f9b3fe80543f262bf3f71c",
      "pubKey": "927c8f340255d5a2d7b839ce4859f7dc33c64e5967fe40dde023c0751a53dff3925eec1eaaeb60f83c203c85e9c5b223",
      "sign": "a72c0b66b936b36525fdc1f07c94266a8280abd6acb04d1d87477d8ea790c98593084649f5be7fb7653c8ffcc34dd3e5067b2ffac7feaa85e5e574c972b7363dc0ac7df937c82cdce2ccae7cf6c2df265a3e8c9188cda23d872da08a0e2fa5a4",
      "id": "chat.app",
      "orientation": "portrait",
      "author": "n/a",
      "isLocal": false,
      "full_screen": true,
      "status_bar": "hide",
      "type": 3,
      "urlWeb": "https://web.telegram.org/z/",
      "urlScript": "https://gitlab.com/tranhuy.beearning/upload-d-apps/-/raw/main/metanode_d_apps/scripts/telegram/script.js",
      "page": 15,
      "position": {
        "x": 0,
        "y": 0,
        "width": 4,
        "height": 4
      }
    },
    {
      "name": "Soundcloud",
      "version": "0.0.1",
      "logo": "https://gitlab.com/tranhuy.beearning/upload-d-apps/-/raw/main/metanode_d_apps/public/soundcloud.jpg",
      "hash": "335d3df52df4852c962277ca563e4a7cb67f450a31f9b3fe80543f262bf3f71c",
      "pubKey": "927c8f340255d5a2d7b839ce4859f7dc33c64e5967fe40dde023c0751a53dff3925eec1eaaeb60f83c203c85e9c5b223",
      "sign": "a72c0b66b936b36525fdc1f07c94266a8280abd6acb04d1d87477d8ea790c98593084649f5be7fb7653c8ffcc34dd3e5067b2ffac7feaa85e5e574c972b7363dc0ac7df937c82cdce2ccae7cf6c2df265a3e8c9188cda23d872da08a0e2fa5a4",
      "id": "soundcloud.app",
      "orientation": "portrait",
      "author": "n/a",
      "isLocal": false,
      "full_screen": true,
      "status_bar": "hide",
      "type": 3,
      "urlWeb": "https://m.soundcloud.com/",
      "urlScript": "https://gitlab.com/tranhuy.beearning/upload-d-apps/-/raw/main/metanode_d_apps/scripts/soundcloud/script.js",
      "page": 16,
      "position": {
        "x": 0,
        "y": 0,
        "width": 4,
        "height": 4
      }
    },

    {
      "name": "Mining [DEV]",
      "version": "1.0.1",
      "hash": "335d3df52df4852c962277ca563e4a7cb67f450a31f9b3fe80543f262bf3f71c",
      "pubKey": "927c8f340255d5a2d7b839ce4859f7dc33c64e5967fe40dde023c0751a53dff3925eec1eaaeb60f83c203c85e9c5b223",
      "sign": "a72c0b66b936b36525fdc1f07c94266a8280abd6acb04d1d87477d8ea790c98593084649f5be7fb7653c8ffcc34dd3e5067b2ffac7feaa85e5e574c972b7363dc0ac7df937c82cdce2ccae7cf6c2df265a3e8c9188cda23d872da08a0e2fa5a4",
      "logo": "https://gitlab.com/QuangFiIt/upload_app/-/raw/main/top-web-usa-logo/developer.png",
      "id": "meta.dev.mining",
      "orientation": "portrait",
      "author": "n/a",
      "full_screen": true,
      "status_bar": "hide",
      "type": 1,
      "page": 22,
      "position": {
        "x": 0,
        "y": 1,
        "width": 1,
        "height": 1
      },
      "urlWeb": "http://10.0.0.48:8084/"
    },
    {
      "name": "Deploy Smart Contract[DEV]",
      "version": "1.0.1",
      "hash": "335d3df52df4852c962277ca563e4a7cb67f450a31f9b3fe80543f262bf3f71c",
      "pubKey": "927c8f340255d5a2d7b839ce4859f7dc33c64e5967fe40dde023c0751a53dff3925eec1eaaeb60f83c203c85e9c5b223",
      "sign": "a72c0b66b936b36525fdc1f07c94266a8280abd6acb04d1d87477d8ea790c98593084649f5be7fb7653c8ffcc34dd3e5067b2ffac7feaa85e5e574c972b7363dc0ac7df937c82cdce2ccae7cf6c2df265a3e8c9188cda23d872da08a0e2fa5a4",
      "logo": "https://gitlab.com/QuangFiIt/upload_app/-/raw/main/top-web-usa-logo/developer.png",
      "id": "meta.dev.deploySmartContract",
      "orientation": "portrait",
      "author": "n/a",
      "full_screen": true,
      "status_bar": "hide",
      "type": 1,
      "page": 22,
      "position": {
        "x": 1,
        "y": 1,
        "width": 1,
        "height": 1
      },
      "urlWeb": "http://10.0.0.45:8085/#/deploy-smart-contract"
    },
    {
      "name": "Execute Smart Contract[DEV]",
      "version": "1.0.1",
      "hash": "335d3df52df4852c962277ca563e4a7cb67f450a31f9b3fe80543f262bf3f71c",
      "pubKey": "927c8f340255d5a2d7b839ce4859f7dc33c64e5967fe40dde023c0751a53dff3925eec1eaaeb60f83c203c85e9c5b223",
      "sign": "a72c0b66b936b36525fdc1f07c94266a8280abd6acb04d1d87477d8ea790c98593084649f5be7fb7653c8ffcc34dd3e5067b2ffac7feaa85e5e574c972b7363dc0ac7df937c82cdce2ccae7cf6c2df265a3e8c9188cda23d872da08a0e2fa5a4",
      "logo": "https://gitlab.com/QuangFiIt/upload_app/-/raw/main/top-web-usa-logo/developer.png",
      "id": "meta.dev.executeSmartContract",
      "orientation": "portrait",
      "author": "n/a",
      "full_screen": true,
      "status_bar": "hide",
      "type": 1,
      "page": 22,
      "position": {
        "x": 2,
        "y": 1,
        "width": 1,
        "height": 1
      },
      "urlWeb": "http://10.0.0.45:8085/#/execute-smart-contract"
    },
    {
      "name": "Meta Store[DEV]",
      "version": "1.0.0",
      "hash": "335d3df52df4852c962277ca563e4a7cb67f450a31f9b3fe80543f262bf3f71c",
      "pubKey": "927c8f340255d5a2d7b839ce4859f7dc33c64e5967fe40dde023c0751a53dff3925eec1eaaeb60f83c203c85e9c5b223",
      "sign": "a72c0b66b936b36525fdc1f07c94266a8280abd6acb04d1d87477d8ea790c98593084649f5be7fb7653c8ffcc34dd3e5067b2ffac7feaa85e5e574c972b7363dc0ac7df937c82cdce2ccae7cf6c2df265a3e8c9188cda23d872da08a0e2fa5a4",
      "logo": "https://gitlab.com/QuangFiIt/upload_app/-/raw/main/top-web-usa-logo/developer.png",
      "id": "meta.dev.store",
      "orientation": "portrait",
      "author": "n/a",
      "full_screen": true,
      "status_bar": "hide",
      "type": 1,
      "page": 22,
      "position": {
        "x": 3,
        "y": 1,
        "width": 1,
        "height": 1
      },
      "urlWeb": "http://10.0.0.9:8080/#/"
    },
    {
      "name": "Swap Token[DEV]",
      "version": "1.0.0",
      "hash": "335d3df52df4852c962277ca563e4a7cb67f450a31f9b3fe80543f262bf3f71c",
      "pubKey": "927c8f340255d5a2d7b839ce4859f7dc33c64e5967fe40dde023c0751a53dff3925eec1eaaeb60f83c203c85e9c5b223",
      "sign": "a72c0b66b936b36525fdc1f07c94266a8280abd6acb04d1d87477d8ea790c98593084649f5be7fb7653c8ffcc34dd3e5067b2ffac7feaa85e5e574c972b7363dc0ac7df937c82cdce2ccae7cf6c2df265a3e8c9188cda23d872da08a0e2fa5a4",
      "logo": "https://gitlab.com/QuangFiIt/upload_app/-/raw/main/top-web-usa-logo/developer.png",
      "id": "meta.dev.swaptoken",
      "orientation": "portrait",
      "author": "n/a",
      "full_screen": true,
      "status_bar": "hide",
      "type": 1,
      "page": 22,
      "position": {
        "x": 0,
        "y": 2,
        "width": 1,
        "height": 1
      },
      "urlWeb": "http://10.0.2.78:8081/#/"
    },
    {
      "name": "Meta Betting[DEV]",
      "version": "1.0.0",
      "hash": "335d3df52df4852c962277ca563e4a7cb67f450a31f9b3fe80543f262bf3f71c",
      "pubKey": "927c8f340255d5a2d7b839ce4859f7dc33c64e5967fe40dde023c0751a53dff3925eec1eaaeb60f83c203c85e9c5b223",
      "sign": "a72c0b66b936b36525fdc1f07c94266a8280abd6acb04d1d87477d8ea790c98593084649f5be7fb7653c8ffcc34dd3e5067b2ffac7feaa85e5e574c972b7363dc0ac7df937c82cdce2ccae7cf6c2df265a3e8c9188cda23d872da08a0e2fa5a4",
      "logo": "https://gitlab.com/QuangFiIt/upload_app/-/raw/main/top-web-usa-logo/developer.png",
      "id": "meta.dev.betting",
      "orientation": "portrait",
      "author": "n/a",
      "full_screen": true,
      "status_bar": "hide",
      "type": 1,
      "page": 22,
      "position": {
        "x": 1,
        "y": 2,
        "width": 1,
        "height": 1
      },
      "urlWeb": "http://10.0.0.48:8080/#/"
    },
    {
      "name": "Meta Betting [DEV]v2",
      "version": "1.0.0",
      "hash": "335d3df52df4852c962277ca563e4a7cb67f450a31f9b3fe80543f262bf3f71c",
      "pubKey": "927c8f340255d5a2d7b839ce4859f7dc33c64e5967fe40dde023c0751a53dff3925eec1eaaeb60f83c203c85e9c5b223",
      "sign": "a72c0b66b936b36525fdc1f07c94266a8280abd6acb04d1d87477d8ea790c98593084649f5be7fb7653c8ffcc34dd3e5067b2ffac7feaa85e5e574c972b7363dc0ac7df937c82cdce2ccae7cf6c2df265a3e8c9188cda23d872da08a0e2fa5a4",
      "logo": "https://gitlab.com/QuangFiIt/upload_app/-/raw/main/top-web-usa-logo/developer.png",
      "id": "meta.dev.betting_ios_v2",
      "orientation": "portrait",
      "author": "n/a",
      "full_screen": true,
      "status_bar": "hide",
      "type": 1,
      "page": 22,
      "position": {
        "x": 0,
        "y": 3,
        "width": 1,
        "height": 1
      },
      "urlWeb": "http://10.0.0.21:8088/#/"
    },
    {
      "name": "Meta Ens[DEV]",
      "version": "1.0.0",
      "hash": "335d3df52df4852c962277ca563e4a7cb67f450a31f9b3fe80543f262bf3f71c",
      "pubKey": "927c8f340255d5a2d7b839ce4859f7dc33c64e5967fe40dde023c0751a53dff3925eec1eaaeb60f83c203c85e9c5b223",
      "sign": "a72c0b66b936b36525fdc1f07c94266a8280abd6acb04d1d87477d8ea790c98593084649f5be7fb7653c8ffcc34dd3e5067b2ffac7feaa85e5e574c972b7363dc0ac7df937c82cdce2ccae7cf6c2df265a3e8c9188cda23d872da08a0e2fa5a4",
      "logo": "https://gitlab.com/QuangFiIt/upload_app/-/raw/main/top-web-usa-logo/developer.png",
      "id": "meta.ens",
      "orientation": "portrait",
      "author": "n/a",
      "full_screen": true,
      "status_bar": "hide",
      "type": 1,
      "page": 22,
      "position": {
        "x": 3,
        "y": 2,
        "width": 1,
        "height": 1
      },
      "urlWeb": "http://10.0.2.78:8080/#/"
    },
    {
      "name": "Meta Contact",
      "version": "1.0.0",
      "hash": "335d3df52df4852c962277ca563e4a7cb67f450a31f9b3fe80543f262bf3f71c",
      "pubKey": "927c8f340255d5a2d7b839ce4859f7dc33c64e5967fe40dde023c0751a53dff3925eec1eaaeb60f83c203c85e9c5b223",
      "sign": "a72c0b66b936b36525fdc1f07c94266a8280abd6acb04d1d87477d8ea790c98593084649f5be7fb7653c8ffcc34dd3e5067b2ffac7feaa85e5e574c972b7363dc0ac7df937c82cdce2ccae7cf6c2df265a3e8c9188cda23d872da08a0e2fa5a4",
      "logo": "https://gitlab.com/QuangFiIt/upload_app/-/raw/main/top-web-usa-logo/meta_contact.png",
      "id": "meta.prod.contact",
      "orientation": "portrait",
      "author": "n/a",
      "full_screen": true,
      "status_bar": "hide",
      "type": 1,
      "page": 0,
      "position": {
        "x": 2,
        "y": 2,
        "width": 1,
        "height": 1
      },
      "urlWeb": "http://61.28.238.209:9096/meta_contact/"
    },
    {
      "name": "Smart Contract Store",
      "version": "1.0.0",
      "hash": "335d3df52df4852c962277ca563e4a7cb67f450a31f9b3fe80543f262bf3f71c",
      "pubKey": "927c8f340255d5a2d7b839ce4859f7dc33c64e5967fe40dde023c0751a53dff3925eec1eaaeb60f83c203c85e9c5b223",
      "sign": "a72c0b66b936b36525fdc1f07c94266a8280abd6acb04d1d87477d8ea790c98593084649f5be7fb7653c8ffcc34dd3e5067b2ffac7feaa85e5e574c972b7363dc0ac7df937c82cdce2ccae7cf6c2df265a3e8c9188cda23d872da08a0e2fa5a4",
      "logo": "https://gitlab.com/QuangFiIt/upload_app/-/raw/main/top-web-usa-logo/smart_contract_store.jpg",
      "id": "meta.prod.smartContractStore",
      "orientation": "portrait",
      "author": "n/a",
      "full_screen": true,
      "status_bar": "hide",
      "type": 1,
      "page": 0,
      "position": {
        "x": 3,
        "y": 2,
        "width": 1,
        "height": 1
      },
      "urlWeb": "http://61.28.238.209:9096/deploy_smart_contract/#/deploy-smart-contract"
    }
  ]
}
