{
    "name": "Funding",
    "version": "0.0.14",
    "hash": "335d3df52df4852c962277ca563e4a7cb67f450a31f9b3fe80543f262bf3f71c",
    "pubKey": "927c8f340255d5a2d7b839ce4859f7dc33c64e5967fe40dde023c0751a53dff3925eec1eaaeb60f83c203c85e9c5b223",
    "sign": "a72c0b66b936b36525fdc1f07c94266a8280abd6acb04d1d87477d8ea790c98593084649f5be7fb7653c8ffcc34dd3e5067b2ffac7feaa85e5e574c972b7363dc0ac7df937c82cdce2ccae7cf6c2df265a3e8c9188cda23d872da08a0e2fa5a4",
    "logo": "https://gitlab.com/QuangFiIt/upload_app/-/raw/main/top-web-usa-logo/tokenomic.jpg",
    "urlLauchScreen": "",
    "urlLoadingScreen": "",
    "urlZip": "https://gitlab.com/QuangFiIt/upload_app/-/raw/main/meta_apps/metanode_funding_3.zip?inline=false",
    "id": "com.tokenomic.metanode",
    "orientation": "portrait",
    "author": "n/a",
    "full_screen": true,
    "status_bar": "hide",
    "type": 1
}