<svg width="24" height="24" viewBox="0 0 24 24" fill="none" xmlns="http://www.w3.org/2000/svg">
<path fill-rule="evenodd" clip-rule="evenodd" d="M15.5166 1.43726C16.6834 1.28806 17.8638 1.76518 19.0632 2.89373L19.0646 2.89503C20.268 4.03312 20.8159 5.18762 20.7337 6.3635C20.6542 7.49975 19.9955 8.46146 19.2444 9.25501L17.9784 10.595C17.9248 10.6814 17.8543 10.7557 17.7719 10.8136L11.0385 17.9407C10.8072 18.1926 10.4957 18.406 10.2004 18.5639C9.90127 18.7238 9.55531 18.8606 9.23052 18.9184L9.22552 18.9193L6.00667 19.469C5.22611 19.6036 4.47761 19.4086 3.9444 18.9029C3.41195 18.398 3.17666 17.6616 3.26383 16.8771L3.26408 16.8749L3.63569 13.6208C3.67885 13.2971 3.79906 12.9468 3.94077 12.643C4.08197 12.3402 4.27462 12.0191 4.5026 11.7764L4.50407 11.7749L12.7141 3.08489C13.4656 2.29102 14.3891 1.58143 15.5166 1.43726ZM18.1541 8.22489L17.0412 9.40282C14.8916 9.03471 13.175 7.41046 12.6984 5.28565L13.8039 4.11556C14.4722 3.40968 15.0945 3.00345 15.7069 2.92514C15.8671 2.90465 16.0416 2.90496 16.2316 2.93661C16.7211 3.01816 17.3141 3.30776 18.0347 3.98564C19.0406 4.93718 19.2776 5.68244 19.2373 6.2589C19.2035 6.74338 18.9664 7.24497 18.5414 7.78071C18.426 7.92614 18.2968 8.07409 18.1541 8.22489ZM5.59588 12.8035L11.5124 6.54103C12.2545 8.50282 13.8599 10.0189 15.8582 10.655L9.94398 16.9148L9.93502 16.9246C9.85686 17.0104 9.7007 17.1301 9.49312 17.241C9.28836 17.3505 9.09535 17.4185 8.97007 17.4412L5.75296 17.9907L5.75181 17.9909C5.37238 18.0563 5.12087 17.9513 4.97658 17.8145C4.83166 17.6771 4.71203 17.4287 4.75454 17.0438L4.75465 17.0428L5.12346 13.8133C5.14133 13.6867 5.20095 13.4898 5.30021 13.2769C5.4013 13.0602 5.51391 12.8909 5.59588 12.8035Z" fill="white"/>
<path d="M3 21.25C2.58579 21.25 2.25 21.5858 2.25 22C2.25 22.4142 2.58579 22.75 3 22.75H21C21.4142 22.75 21.75 22.4142 21.75 22C21.75 21.5858 21.4142 21.25 21 21.25H3Z" fill="white"/>
</svg>
