<svg width="24" height="24" viewBox="0 0 24 24" fill="none" xmlns="http://www.w3.org/2000/svg">
<path fill-rule="evenodd" clip-rule="evenodd" d="M16.5331 6.72609C17.881 6.79488 18.8765 7.87305 19.4679 9.25677L22.5982 16.5673C23.8998 19.6171 21.6655 22.9998 18.3484 22.9998H5.58841C2.16599 22.9998 -0.0695574 19.3878 1.47441 16.3217C1.47477 16.321 1.47512 16.3203 1.47547 16.3196L3.19494 12.8706C3.76807 11.7306 4.7084 10.9338 5.86652 10.8093C7.0268 10.6845 8.1136 11.2659 8.91069 12.2669L8.91474 12.272L9.13182 12.5483C9.59562 13.1264 10.0516 13.2643 10.3656 13.2382C10.6798 13.2121 11.1053 13.001 11.464 12.3546L13.3538 8.94502C14.0845 7.62863 15.1856 6.65732 16.5331 6.72609ZM15.1027 9.91512L13.213 13.3246C12.6117 14.4082 11.662 15.1375 10.5312 15.2314C9.40079 15.3252 8.34287 14.7637 7.56754 13.7945L7.56206 13.7876L7.34422 13.5103C6.85201 12.8934 6.38462 12.7651 6.0803 12.7978C5.77361 12.8308 5.33929 13.0587 4.98254 13.7676C4.98232 13.768 4.98209 13.7685 4.98187 13.7689L3.26335 17.216L3.26134 17.22C2.38739 18.9534 3.65161 20.9998 5.58841 20.9998H18.3484C20.231 20.9998 21.4966 19.0831 20.759 17.3532C20.7589 17.3529 20.7591 17.3534 20.759 17.3532L17.6291 10.0434C17.1606 8.94713 16.6508 8.7347 16.4312 8.72349C16.2112 8.71226 15.682 8.87152 15.1027 9.91512Z" fill="white"/>
<path fill-rule="evenodd" clip-rule="evenodd" d="M6.96875 3C5.86418 3 4.96875 3.89543 4.96875 5C4.96875 6.10457 5.86418 7 6.96875 7C8.07332 7 8.96875 6.10457 8.96875 5C8.96875 3.89543 8.07332 3 6.96875 3ZM2.96875 5C2.96875 2.79086 4.75961 1 6.96875 1C9.17789 1 10.9688 2.79086 10.9688 5C10.9688 7.20914 9.17789 9 6.96875 9C4.75961 9 2.96875 7.20914 2.96875 5Z" fill="white"/>
</svg>
