{
  "files": {
    "main.css": "./static/css/main.d4171748.chunk.css",
    "main.js": "./static/js/main.134c3fa6.chunk.js",
    "main.js.map": "./static/js/main.134c3fa6.chunk.js.map",
    "runtime-main.js": "./static/js/runtime-main.30e7729b.js",
    "runtime-main.js.map": "./static/js/runtime-main.30e7729b.js.map",
    "static/css/2.f2a0c324.chunk.css": "./static/css/2.f2a0c324.chunk.css",
    "static/js/2.46a4af3e.chunk.js": "./static/js/2.46a4af3e.chunk.js",
    "static/js/2.46a4af3e.chunk.js.map": "./static/js/2.46a4af3e.chunk.js.map",
    "static/js/3.69866ed4.chunk.js": "./static/js/3.69866ed4.chunk.js",
    "static/js/3.69866ed4.chunk.js.map": "./static/js/3.69866ed4.chunk.js.map",
    "index.html": "./index.html",
    "static/css/2.f2a0c324.chunk.css.map": "./static/css/2.f2a0c324.chunk.css.map",
    "static/css/main.d4171748.chunk.css.map": "./static/css/main.d4171748.chunk.css.map",
    "static/js/2.46a4af3e.chunk.js.LICENSE.txt": "./static/js/2.46a4af3e.chunk.js.LICENSE.txt",
    "static/media/1.efb47594.png": "./static/media/1.efb47594.png",
    "static/media/10.24714e19.png": "./static/media/10.24714e19.png",
    "static/media/2.0546aa34.png": "./static/media/2.0546aa34.png",
    "static/media/3.3b179af5.png": "./static/media/3.3b179af5.png",
    "static/media/4.52c7b233.png": "./static/media/4.52c7b233.png",
    "static/media/5.7cf6a554.png": "./static/media/5.7cf6a554.png",
    "static/media/6.f3712b4a.png": "./static/media/6.f3712b4a.png",
    "static/media/7.09d29367.png": "./static/media/7.09d29367.png",
    "static/media/8.bcbd65df.png": "./static/media/8.bcbd65df.png",
    "static/media/9.a3185161.png": "./static/media/9.a3185161.png",
    "static/media/B11-000000.769c7ddd.jpg": "./static/media/B11-000000.769c7ddd.jpg",
    "static/media/B12-000000.65a79190.jpg": "./static/media/B12-000000.65a79190.jpg",
    "static/media/B13-000000.c4d635cf.jpg": "./static/media/B13-000000.c4d635cf.jpg",
    "static/media/B14-000000.ef774156.jpg": "./static/media/B14-000000.ef774156.jpg",
    "static/media/B15-000000.f54cfc0b.jpg": "./static/media/B15-000000.f54cfc0b.jpg",
    "static/media/B16-000000.700a1f61.jpg": "./static/media/B16-000000.700a1f61.jpg",
    "static/media/B17-000000.566f5b4b.jpg": "./static/media/B17-000000.566f5b4b.jpg",
    "static/media/B18-000000.35ec4eb8.jpg": "./static/media/B18-000000.35ec4eb8.jpg",
    "static/media/B19-000000.1b679c6a.jpg": "./static/media/B19-000000.1b679c6a.jpg",
    "static/media/B20-000000.9b819220.jpg": "./static/media/B20-000000.9b819220.jpg",
    "static/media/BG1-FFFFFF.8d8f3004.jpg": "./static/media/BG1-FFFFFF.8d8f3004.jpg",
    "static/media/BG10-FFFFFF.dc881c8a.jpg": "./static/media/BG10-FFFFFF.dc881c8a.jpg",
    "static/media/BG11-FFFFFF.8f5e98f6.jpg": "./static/media/BG11-FFFFFF.8f5e98f6.jpg",
    "static/media/BG12-FFFFFF.5b1e8a4c.jpg": "./static/media/BG12-FFFFFF.5b1e8a4c.jpg",
    "static/media/BG13-000000.7f2d2071.jpg": "./static/media/BG13-000000.7f2d2071.jpg",
    "static/media/BG14-000000.8dc22ba5.jpg": "./static/media/BG14-000000.8dc22ba5.jpg",
    "static/media/BG15-FFFFFF.2f8d604b.jpg": "./static/media/BG15-FFFFFF.2f8d604b.jpg",
    "static/media/BG16-FFFFFF.9b2aea3b.jpg": "./static/media/BG16-FFFFFF.9b2aea3b.jpg",
    "static/media/BG17-FFFFFF.b276ff7a.jpg": "./static/media/BG17-FFFFFF.b276ff7a.jpg",
    "static/media/BG18-FFFFFF.2974ab51.jpg": "./static/media/BG18-FFFFFF.2974ab51.jpg",
    "static/media/BG19-000000.6b56dd3d.jpg": "./static/media/BG19-000000.6b56dd3d.jpg",
    "static/media/BG2-000000.3d429ff8.jpg": "./static/media/BG2-000000.3d429ff8.jpg",
    "static/media/BG20-FFFFFF.72a9a7b1.jpg": "./static/media/BG20-FFFFFF.72a9a7b1.jpg",
    "static/media/BG3-000000.7ce78310.jpg": "./static/media/BG3-000000.7ce78310.jpg",
    "static/media/BG4-FFFFFF.ca52f145.jpg": "./static/media/BG4-FFFFFF.ca52f145.jpg",
    "static/media/BG5-FFFFFF.f6e1ab7f.jpg": "./static/media/BG5-FFFFFF.f6e1ab7f.jpg",
    "static/media/BG6-FFFFFF.a7eeb14d.jpg": "./static/media/BG6-FFFFFF.a7eeb14d.jpg",
    "static/media/BG7-FFFFFF.af0ce8d4.jpg": "./static/media/BG7-FFFFFF.af0ce8d4.jpg",
    "static/media/BG8-FFFFFF.4d8f20cf.jpg": "./static/media/BG8-FFFFFF.4d8f20cf.jpg",
    "static/media/BG9-FFFFFF.0df474e8.jpg": "./static/media/BG9-FFFFFF.0df474e8.jpg",
    "static/media/index.css": "./static/media/ClearSans-Thin.71875bca.ttf",
    "static/media/area.809ec620.svg": "./static/media/area.809ec620.svg",
    "static/media/astronaut_1 - FFFFFF.143f21b5.jpg": "./static/media/astronaut_1 - FFFFFF.143f21b5.jpg",
    "static/media/astronaut_10 - FFFFFF.e67c3ca6.jpg": "./static/media/astronaut_10 - FFFFFF.e67c3ca6.jpg",
    "static/media/astronaut_2 - FFFFFF.61e616cc.jpg": "./static/media/astronaut_2 - FFFFFF.61e616cc.jpg",
    "static/media/astronaut_3 - FFFFFF.2cfa21d4.jpg": "./static/media/astronaut_3 - FFFFFF.2cfa21d4.jpg",
    "static/media/astronaut_4 - FFFFFF.70522633.jpg": "./static/media/astronaut_4 - FFFFFF.70522633.jpg",
    "static/media/astronaut_5 - FFFFFF.18896ea9.jpg": "./static/media/astronaut_5 - FFFFFF.18896ea9.jpg",
    "static/media/astronaut_6 - FFFFFF.12f0e485.jpg": "./static/media/astronaut_6 - FFFFFF.12f0e485.jpg",
    "static/media/astronaut_7 - FFFFFF.66ce59f5.jpg": "./static/media/astronaut_7 - FFFFFF.66ce59f5.jpg",
    "static/media/astronaut_8 - FFFFFF.38daa247.jpg": "./static/media/astronaut_8 - FFFFFF.38daa247.jpg",
    "static/media/astronaut_9 - FFFFFF.f578cf80.jpg": "./static/media/astronaut_9 - FFFFFF.f578cf80.jpg",
    "static/media/b1-000000.5fa8f2ac.jpg": "./static/media/b1-000000.5fa8f2ac.jpg",
    "static/media/b10-FFFFFF.b1102d41.jpg": "./static/media/b10-FFFFFF.b1102d41.jpg",
    "static/media/b2-FFFFFF.c96d7c00.jpg": "./static/media/b2-FFFFFF.c96d7c00.jpg",
    "static/media/b3-FFFFFF.1a9d3bc8.jpg": "./static/media/b3-FFFFFF.1a9d3bc8.jpg",
    "static/media/b4-FFFFFF.3e2bd3c1.jpg": "./static/media/b4-FFFFFF.3e2bd3c1.jpg",
    "static/media/b5-FFFFFF.087e304c.jpg": "./static/media/b5-FFFFFF.087e304c.jpg",
    "static/media/b6-FFFFFF.0803969d.jpg": "./static/media/b6-FFFFFF.0803969d.jpg",
    "static/media/b7-FFFFFF.a16c4fcd.jpg": "./static/media/b7-FFFFFF.a16c4fcd.jpg",
    "static/media/b8-FFFFFF.5c9d4a7b.jpg": "./static/media/b8-FFFFFF.5c9d4a7b.jpg",
    "static/media/b9-000000.af9d327e.jpg": "./static/media/b9-000000.af9d327e.jpg",
    "static/media/background.8ac0d2c0.svg": "./static/media/background.8ac0d2c0.svg",
    "static/media/blend-2.858cf151.svg": "./static/media/blend-2.858cf151.svg",
    "static/media/collection.ac25c824.svg": "./static/media/collection.ac25c824.svg",
    "static/media/color-swatch.74521827.svg": "./static/media/color-swatch.74521827.svg",
    "static/media/delete.f2a4f7d9.svg": "./static/media/delete.f2a4f7d9.svg",
    "static/media/earth.67ecf5d3.svg": "./static/media/earth.67ecf5d3.svg",
    "static/media/edit-2.43c8c0f1.svg": "./static/media/edit-2.43c8c0f1.svg",
    "static/media/flip-h.dbe6b373.svg": "./static/media/flip-h.dbe6b373.svg",
    "static/media/flip-v.96128114.svg": "./static/media/flip-v.96128114.svg",
    "static/media/holograpic_1 - FFFFFF.099c903c.jpg": "./static/media/holograpic_1 - FFFFFF.099c903c.jpg",
    "static/media/holograpic_10 - FFFFFF.43673df6.jpg": "./static/media/holograpic_10 - FFFFFF.43673df6.jpg",
    "static/media/holograpic_2 - FFFFFF.a7880091.jpg": "./static/media/holograpic_2 - FFFFFF.a7880091.jpg",
    "static/media/holograpic_3 - FFFFFF.e446dc55.jpg": "./static/media/holograpic_3 - FFFFFF.e446dc55.jpg",
    "static/media/holograpic_4 - FFFFFF.b5645117.jpg": "./static/media/holograpic_4 - FFFFFF.b5645117.jpg",
    "static/media/holograpic_5 - FFFFFF.4095918f.jpg": "./static/media/holograpic_5 - FFFFFF.4095918f.jpg",
    "static/media/holograpic_6 - FFFFFF.33582fba.jpg": "./static/media/holograpic_6 - FFFFFF.33582fba.jpg",
    "static/media/holograpic_7 - FFFFFF.b0c11d96.jpg": "./static/media/holograpic_7 - FFFFFF.b0c11d96.jpg",
    "static/media/holograpic_8 - FFFFFF.cea37eac.jpg": "./static/media/holograpic_8 - FFFFFF.cea37eac.jpg",
    "static/media/holograpic_9 - FFFFFF.2915adf5.jpg": "./static/media/holograpic_9 - FFFFFF.2915adf5.jpg",
    "static/media/ibe-icons.css": "./static/media/ibenefit.f5f74cd9.eot",
    "static/media/image.c2e25508.svg": "./static/media/image.c2e25508.svg",
    "static/media/jupiter.39ed195c.svg": "./static/media/jupiter.39ed195c.svg",
    "static/media/label.7ee85304.svg": "./static/media/label.7ee85304.svg",
    "static/media/liquid_1 - FFFFFF.5fb2fa66.jpg": "./static/media/liquid_1 - FFFFFF.5fb2fa66.jpg",
    "static/media/liquid_10 - FFFFFF.3c305bf0.jpg": "./static/media/liquid_10 - FFFFFF.3c305bf0.jpg",
    "static/media/liquid_2 - FFFFFF.ce2c1b2a.jpg": "./static/media/liquid_2 - FFFFFF.ce2c1b2a.jpg",
    "static/media/liquid_3 - FFFFFF.9760263d.jpg": "./static/media/liquid_3 - FFFFFF.9760263d.jpg",
    "static/media/liquid_4 - FFFFFF.ac0d9c2b.jpg": "./static/media/liquid_4 - FFFFFF.ac0d9c2b.jpg",
    "static/media/liquid_5 - FFFFFF.eabe9cac.jpg": "./static/media/liquid_5 - FFFFFF.eabe9cac.jpg",
    "static/media/liquid_6 - FFFFFF.4a300426.jpg": "./static/media/liquid_6 - FFFFFF.4a300426.jpg",
    "static/media/liquid_7 - FFFFFF.cf88be9e.jpg": "./static/media/liquid_7 - FFFFFF.cf88be9e.jpg",
    "static/media/liquid_8 - FFFFFF.2969dc17.jpg": "./static/media/liquid_8 - FFFFFF.2969dc17.jpg",
    "static/media/liquid_9 - FFFFFF.3b17db14.jpg": "./static/media/liquid_9 - FFFFFF.3b17db14.jpg",
    "static/media/logo.f69c440e.png": "./static/media/logo.f69c440e.png",
    "static/media/mars.9f40d375.svg": "./static/media/mars.9f40d375.svg",
    "static/media/mask.039ab5ca.svg": "./static/media/mask.039ab5ca.svg",
    "static/media/mercury.2ae2f20c.svg": "./static/media/mercury.2ae2f20c.svg",
    "static/media/moon.aea5fecb.svg": "./static/media/moon.aea5fecb.svg",
    "static/media/neptune.18dc9323.svg": "./static/media/neptune.18dc9323.svg",
    "static/media/round.3328230e.svg": "./static/media/round.3328230e.svg",
    "static/media/saturn.e915cd89.svg": "./static/media/saturn.e915cd89.svg",
    "static/media/size.86f7847b.svg": "./static/media/size.86f7847b.svg",
    "static/media/slick-theme.css": "./static/media/slick.c94f7671.ttf",
    "static/media/sun.d636ada8.svg": "./static/media/sun.d636ada8.svg",
    "static/media/tothemoon_1 - FFFFFF.ac02ded2.jpg": "./static/media/tothemoon_1 - FFFFFF.ac02ded2.jpg",
    "static/media/tothemoon_10 - FFFFFF.6e458a47.jpg": "./static/media/tothemoon_10 - FFFFFF.6e458a47.jpg",
    "static/media/tothemoon_2 - FFFFFF.db6556a4.jpg": "./static/media/tothemoon_2 - FFFFFF.db6556a4.jpg",
    "static/media/tothemoon_3 - FFFFFF.3a035302.jpg": "./static/media/tothemoon_3 - FFFFFF.3a035302.jpg",
    "static/media/tothemoon_4 - FFFFFF.fe84f5c5.jpg": "./static/media/tothemoon_4 - FFFFFF.fe84f5c5.jpg",
    "static/media/tothemoon_5 - FFFFFF.c48890f3.jpg": "./static/media/tothemoon_5 - FFFFFF.c48890f3.jpg",
    "static/media/tothemoon_6 - FFFFFF.acdd7c60.jpg": "./static/media/tothemoon_6 - FFFFFF.acdd7c60.jpg",
    "static/media/tothemoon_7 - FFFFFF.b6c6e272.jpg": "./static/media/tothemoon_7 - FFFFFF.b6c6e272.jpg",
    "static/media/tothemoon_8 - FFFFFF.1d08aa07.jpg": "./static/media/tothemoon_8 - FFFFFF.1d08aa07.jpg",
    "static/media/tothemoon_9 - FFFFFF.7b81487f.jpg": "./static/media/tothemoon_9 - FFFFFF.7b81487f.jpg",
    "static/media/upload.e80a1abb.svg": "./static/media/upload.e80a1abb.svg",
    "static/media/uranus.aa7f7cc2.svg": "./static/media/uranus.aa7f7cc2.svg",
    "static/media/venus.392cf6e7.svg": "./static/media/venus.392cf6e7.svg"
  },
  "entrypoints": [
    "static/js/runtime-main.30e7729b.js",
    "static/css/2.f2a0c324.chunk.css",
    "static/js/2.46a4af3e.chunk.js",
    "static/css/main.d4171748.chunk.css",
    "static/js/main.134c3fa6.chunk.js"
  ]
}