<svg width="16" height="16" viewBox="0 0 16 16" fill="none" xmlns="http://www.w3.org/2000/svg">
<path fill-rule="evenodd" clip-rule="evenodd" d="M2.4 0C1.07452 0 0 1.07452 0 2.4V13.6C0 14.9255 1.07452 16 2.4 16H6.08C6.69856 16 7.2 15.4986 7.2 14.88C7.2 11.0803 10.2803 8 14.08 8H14.848C15.4842 8 16 7.48424 16 6.848V2.4C16 1.07452 14.9255 0 13.6 0H2.4ZM4 3.2C4 3.64182 3.64182 4 3.2 4C2.75818 4 2.4 3.64182 2.4 3.2C2.4 2.75818 2.75818 2.4 3.2 2.4C3.64182 2.4 4 2.75818 4 3.2ZM5.6 4C6.04182 4 6.4 3.64182 6.4 3.2C6.4 2.75818 6.04182 2.4 5.6 2.4C5.15818 2.4 4.8 2.75818 4.8 3.2C4.8 3.64182 5.15818 4 5.6 4ZM8.8 3.2C8.8 3.64182 8.44184 4 8 4C7.55816 4 7.2 3.64182 7.2 3.2C7.2 2.75818 7.55816 2.4 8 2.4C8.44184 2.4 8.8 2.75818 8.8 3.2Z" fill="white"/>
<path d="M12.8016 9.59961C13.2434 9.59961 13.6016 9.95777 13.6016 10.3996V11.9996H15.2016C15.6434 11.9996 16.0016 12.3578 16.0016 12.7996C16.0016 13.2414 15.6434 13.5996 15.2016 13.5996H13.6016V15.1996C13.6016 15.6414 13.2434 15.9996 12.8016 15.9996C12.3597 15.9996 12.0016 15.6414 12.0016 15.1996V13.5996H10.4016C9.95972 13.5996 9.60156 13.2414 9.60156 12.7996C9.60156 12.3578 9.95972 11.9996 10.4016 11.9996H12.0016V10.3996C12.0016 9.95777 12.3597 9.59961 12.8016 9.59961Z" fill="white"/>
</svg>
